[
    

{
    "Jira": "Fire-2054",
    "Type": "FieldConstraint",
    "Name": "FieldConstraint-Person/Owner - Address -  City",
    "RuleDescription": "Field should have max length 20.",
    "Setup": [{ "Field": { "Acess": [], "Constraints": [], "ListField": null, "Rules": null, "TagAssignments": [], "FieldRef": "OWNER", "DisplayName": "Owner", "ShowField": true, "DataTypeID": 6, "ListFieldID": null, "TabID": 1, "IsVirtual": true, "ID": "basic.personEntity.owner" }, "Value": [ [
{ "Field": { "Acess": [], "Constraints": [], "ListField": null, "Rules": null, "TagAssignments": [], "FieldRef": "OWNERCITY", "DisplayName": "City", "ShowField": true, "DataTypeID": 3, "ListFieldID": null, "TabID": 1, "IsVirtual": false, "ID": "basic.personEntity.owner.address.city" }, "Value": "abc. dfhke ddjilE~`jqqqqq" }
    ] ] }
        ], 
    "Act": [],
    "Assert":  [{ "Field": { "Acess": [], "Constraints": [], "ListField": null, "Rules": null, "TagAssignments": [], "FieldRef": "OWNER", "DisplayName": "Owner", "ShowField": true, "DataTypeID": 6, "ListFieldID": null, "TabID": 1, "IsVirtual": true, "ID": "basic.personEntity.owner" }, "Value": [ [
        { "Field": { "Acess": [], "Constraints": [], "ListField": null, "Rules": null, "TagAssignments": [], "FieldRef": "OWNERCITY", "DisplayName": "City", "ShowField": true, "DataTypeID": 3, "ListFieldID": null, "TabID": 1, "IsVirtual": false, "ID": "basic.personEntity.owner.address.city" }, "Value": "abc. dfhke ddjilE~`j" }

    ] ] }]
},



{
    "Jira": "Fire-2054",
    "Type": "FieldConstraint",
    "Name": "FieldConstraint-Person/Owner - Address -  City",
    "RuleDescription": "Field should have max length 20.",
    "Setup": [{ "Field": { "Acess": [], "Constraints": [], "ListField": null, "Rules": null, "TagAssignments": [], "FieldRef": "PERSONCOLLECTION", "DisplayName": "Person Entities", "ShowField": true, "DataTypeID": 6, "ListFieldID": null, "TabID": 1, "IsVirtual": false, "ID": "basic.personEntity.personEntities" }, "Value": [ [
        { "Field": { "Acess": [], "Constraints": [], "ListField": null, "Rules": null, "TagAssignments": [], "FieldRef": "PERSONCITY", "DisplayName": "City", "ShowField": true, "DataTypeID": 3, "ListFieldID": null, "TabID": 1, "IsVirtual": false, "ID": "basic.personEntity.personEntities.address.city" }, "Value": "abc. dfhke ddjilE~`jqqqqq" }
    ] ] }], 
    "Act": [],
    "Assert":  [{ "Field": { "Acess": [], "Constraints": [], "ListField": null, "Rules": null, "TagAssignments": [], "FieldRef": "PERSONCOLLECTION", "DisplayName": "Person Entities", "ShowField": true, "DataTypeID": 6, "ListFieldID": null, "TabID": 1, "IsVirtual": false, "ID": "basic.personEntity.personEntities" }, "Value": [ [
        { "Field": { "Acess": [], "Constraints": [], "ListField": null, "Rules": null, "TagAssignments": [], "FieldRef": "PERSONCITY", "DisplayName": "City", "ShowField": true, "DataTypeID": 3, "ListFieldID": null, "TabID": 1, "IsVirtual": false, "ID": "basic.personEntity.personEntities.address.city" }, "Value": "abc. dfhke ddjilE~`j" }
    ] ] }]
},


    {
    "Jira": "Fire-2025",
    "Type": "FieldConstraint",
    "Name": "FieldConstraint-NFIRS Number",
    "RuleDescription": "Field should have max length 7.",
    "Setup": [{ "Field": { "Acess": [], "Constraints": [], "ListField": null, "Rules": null, "TagAssignments": [], "FieldRef": "NFIRSINCIDENTNUMBER", "DisplayName": "NFIRS Number", "ShowField": true, "DataTypeID": 3, "ListFieldID": null, "TabID": 1, "IsVirtual": false, "ID": "basic.incident.nfirsIncidentNumber" }, "Value": "12345678" }],
    "Act": [],
    "Assert": [{ "Field": { "Acess": [], "Constraints": [], "ListField": null, "Rules": null, "TagAssignments": [], "FieldRef": "NFIRSINCIDENTNUMBER", "DisplayName": "NFIRS Number", "ShowField": true, "DataTypeID": 3, "ListFieldID": null, "TabID": 1, "IsVirtual": false, "ID": "basic.incident.nfirsIncidentNumber" }, "Value": "1234567" }]
}
    
]